Atelier 2: Charger et manipuler des données
…
---
## Solution

1. Utisez `group_by()` pour grouper le jeu de données `ChickWeight`
2. Utisez `summarise()` pour calculer la gain de poids par groupe

```r
mass_diff <- ChickWeight %>%
      group_by(Chick) %>%
      summarise(mass_diff = max(weight) - min(weight))
mass_diff
# # A tibble: 50 x 2
#    Chick mass_diff
#    <ord>     <dbl>
#  1 18            4
#  2 16           16
#  3 15           27
#  4 13           55
#  5 9            58
#  6 20           76
#  7 10           83
#  8 8            92
#  9 17          100
# 10 19          114
# # … with 40 more rows
```
…
